<svg width="42" height="42" viewBox="0 0 42 42" fill="none" xmlns="http://www.w3.org/2000/svg">
<rect x="0.600586" y="0.591797" width="41" height="41" rx="19.5238" fill="#E9E9E9"/>
<path d="M13.6162 13.6079L28.5845 28.5762" stroke="#ABABAB" stroke-width="2"/>
<path d="M28.584 13.6079L13.6157 28.5762" stroke="#ABABAB" stroke-width="2"/>
</svg>
